…
The number of bins along the x-axis, the ratio of the ranges of the original embedding components, the buffer amount as a proportion of data, and if `is_rm_lwd_hex = TRUE`, benchmark value to remove low density hexagons are parameters that will be determined within `fit_highd_model()`, if they are not provided. They are created as they are needed throughout the following example. The function `fit_highd_model()` provides the fitted model in $2\text{-}D$, and $p\text{-}D$.  

<div class="layout-chunk" data-layout="l-body">
<div class="sourceCode"><pre class="sourceCode r"><code class="sourceCode r"><span><span class='fu'>fit_highd_model</span><span class='op'>(</span></span>
<span>  highd_data <span class='op'>=</span> <span class='va'>s_curve_noise_training</span>,</span>
<span>  nldr_data <span class='op'>=</span> <span class='va'>s_curve_noise_umap_scaled</span>, </span>
<span>  bin1 <span class='op'>=</span> <span class='fl'>12</span>, </span>
<span>  r2 <span class='op'>=</span> <span class='va'>r2</span>,</span>
<span>  q <span class='op'>=</span> <span class='fl'>0.1</span>,</span>
<span>  is_bin_centroid <span class='op'>=</span> <span class='cn'>TRUE</span></span>
<span>  <span class='op'>)</span></span></code></pre></div>

```
$df_bin
# A tibble: 72 × 8
   hb_id     x1    x2    x3        x4        x5        x6         x7
   <int>  <dbl> <dbl> <dbl>     <dbl>     <dbl>     <dbl>      <dbl>
 1    13  0.996  1.77  1.07 -0.0117    0.00979  -0.0725   -0.00321  
 2    14  0.829  1.79  1.50 -0.000753 -0.00194  -0.00936  -0.000454 
 3    15  0.307  1.78  1.94 -0.00384   0.00212  -0.00117  -0.000159 
 4    16 -0.175  1.74  1.98  0.00143   0.00320   0.00450  -0.0000763
 5    18 -0.493  1.78  1.87 -0.0100    0.000680  0.0799   -0.000835 
 6    26  0.962  1.22  1.22  0.00107  -0.00260  -0.000948  0.000234 
 7    27  0.631  1.28  1.75  0.000266  0.00174  -0.00158   0.00114  
 8    28  0.139  1.20  1.97 -0.00183   0.000279  0.00177  -0.000666 
 9    29 -0.187  1.00  1.98 -0.00228   0.00461  -0.0506   -0.00472  
10    30 -0.562  1.23  1.82 -0.000563  0.00166  -0.00923  -0.000111 
# ℹ 62 more rows

$df_bin_centroids
# A tibble: 72 × 6
   hexID      c_x      c_y bin_counts std_counts drop_empty
   <int>    <dbl>    <dbl>      <int>      <dbl> <lgl>     
 1    13 -0.0455  0.000514          2     0.0194 FALSE     
 2    14  0.0634  0.000514         81     0.786  FALSE     
 3    15  0.172   0.000514         56     0.544  FALSE     
 4    16  0.281   0.000514         55     0.534  FALSE     
 5    18  0.499   0.000514          2     0.0194 FALSE     
 6    26  0.00894 0.0949           70     0.680  FALSE     
 7    27  0.118   0.0949           78     0.757  FALSE     
 8    28  0.227   0.0949           86     0.835  FALSE     
 9    29  0.336   0.0949            5     0.0485 FALSE     
10    30  0.445   0.0949           54     0.524  FALSE     
# ℹ 62 more rows
```
…
```
$a1
[1] 0.1089367

$a2
[1] 0.09434198

$bins
[1] 12 13

$start_point
[1] -0.10000000 -0.09382762

$centroids
# A tibble: 156 × 3
   hexID      c_x     c_y
   <int>    <dbl>   <dbl>
 1     1 -0.1     -0.0938
 2     2  0.00894 -0.0938
 3     3  0.118   -0.0938
 4     4  0.227   -0.0938
 5     5  0.336   -0.0938
 6     6  0.445   -0.0938
 7     7  0.554   -0.0938
 8     8  0.663   -0.0938
 9     9  0.771   -0.0938
10    10  0.880   -0.0938
# ℹ 146 more rows

$hex_poly
# A tibble: 936 × 3
   hex_poly_id        x       y
         <int>    <dbl>   <dbl>
 1           1 -0.1     -0.0309
 2           1 -0.154   -0.0624
 3           1 -0.154   -0.125 
 4           1 -0.1     -0.157 
 5           1 -0.0455  -0.125 
 6           1 -0.0455  -0.0624
 7           2  0.00894 -0.0309
 8           2 -0.0455  -0.0624
 9           2 -0.0455  -0.125 
10           2  0.00894 -0.157 
# ℹ 926 more rows

$data_hb_id
# A tibble: 3,750 × 4
     emb1   emb2    ID hb_id
    <dbl>  <dbl> <int> <int>
 1 0.276  0.915      1   136
 2 0.927  0.347      2    70
 3 0.810  0.242      3    45
 4 0.137  0.657      5    99
 5 0.476  0.799      6   114
 6 0.0485 0.0657     7    26
 7 0.737  0.851      9   129
 8 0.833  0.224     10    45
 9 0.909  0.371     11    70
10 0.0890 0.194     12    38
# ℹ 3,740 more rows

$std_cts
# A tibble: 72 × 3
   hb_id     n std_counts
   <int> <int>      <dbl>
 1    13     2     0.0194
 2    14    81     0.786 
 3    15    56     0.544 
 4    16    55     0.534 
 5    18     2     0.0194
 6    26    70     0.680 
 7    27    78     0.757 
 8    28    86     0.835 
 9    29     5     0.0485
10    30    54     0.524 
# ℹ 62 more rows

$tot_bins
[1] 156

$non_bins
[1] 72

$pts_bins
# A tibble: 72 × 2
   hexID pts_list     
   <int> <named list> 
 1   136 <int [3,750]>
 2    70 <int [3,750]>
 3    45 <int [3,750]>
 4    99 <int [3,750]>
 5   114 <int [3,750]>
 6    26 <int [3,750]>
 7   129 <int [3,750]>
 8    38 <int [3,750]>
 9   111 <int [3,750]>
10    14 <int [3,750]>
# ℹ 62 more rows
…
